{
  "page": 1,
  "per_page": 10,
  "photos": [
    {
      "id": 9819018,
      "width": 3456,
      "height": 5184,
      "url": "https://www.pexels.com/photo/oxford-shoes-and-stipy-socks-9819018/",
      "photographer": "Olga Pozney",
      "photographer_url": "https://www.pexels.com/@olga-pozney-79376841",
      "photographer_id": 79376841,
      "avg_color": "#45574B",
      "src": {
        "original": "https://images.pexels.com/photos/9819018/pexels-photo-9819018.jpeg",
        "large2x": "https://images.pexels.com/photos/9819018/pexels-photo-9819018.jpeg?auto=compress&cs=tinysrgb&dpr=2&h=650&w=940",
        "large": "https://images.pexels.com/photos/9819018/pexels-photo-9819018.jpeg?auto=compress&cs=tinysrgb&h=650&w=940",
        "medium": "https://images.pexels.com/photos/9819018/pexels-photo-9819018.jpeg?auto=compress&cs=tinysrgb&h=350",
        "small": "https://images.pexels.com/photos/9819018/pexels-photo-9819018.jpeg?auto=compress&cs=tinysrgb&h=130",
        "portrait": "https://images.pexels.com/photos/9819018/pexels-photo-9819018.jpeg?auto=compress&cs=tinysrgb&fit=crop&h=1200&w=800",
        "landscape": "https://images.pexels.com/photos/9819018/pexels-photo-9819018.jpeg?auto=compress&cs=tinysrgb&fit=crop&h=627&w=1200",
        "tiny": "https://images.pexels.com/photos/9819018/pexels-photo-9819018.jpeg?auto=compress&cs=tinysrgb&dpr=1&fit=crop&h=200&w=280"
      },
      "liked": false
    },
    {
      "id": 9829570,
      "width": 4912,
      "height": 7360,
      "url": "https://www.pexels.com/photo/traveler-walking-in-forest-and-wearing-hut-and-backpack-9829570/",
      "photographer": "Guney Ozgur",
      "photographer_url": "https://www.pexels.com/@guney-ozgur-65972376",
      "photographer_id": 65972376,
      "avg_color": "#655E4B",
      "src": {
        "original": "https://images.pexels.com/photos/9829570/pexels-photo-9829570.jpeg",
        "large2x": "https://images.pexels.com/photos/9829570/pexels-photo-9829570.jpeg?auto=compress&cs=tinysrgb&dpr=2&h=650&w=940",
        "large": "https://images.pexels.com/photos/9829570/pexels-photo-9829570.jpeg?auto=compress&cs=tinysrgb&h=650&w=940",
        "medium": "https://images.pexels.com/photos/9829570/pexels-photo-9829570.jpeg?auto=compress&cs=tinysrgb&h=350",
        "small": "https://images.pexels.com/photos/9829570/pexels-photo-9829570.jpeg?auto=compress&cs=tinysrgb&h=130",
        "portrait": "https://images.pexels.com/photos/9829570/pexels-photo-9829570.jpeg?auto=compress&cs=tinysrgb&fit=crop&h=1200&w=800",
        "landscape": "https://images.pexels.com/photos/9829570/pexels-photo-9829570.jpeg?auto=compress&cs=tinysrgb&fit=crop&h=627&w=1200",
        "tiny": "https://images.pexels.com/photos/9829570/pexels-photo-9829570.jpeg?auto=compress&cs=tinysrgb&dpr=1&fit=crop&h=200&w=280"
      },
      "liked": false
    },
    {
      "id": 9800867,
      "width": 2893,
      "height": 3951,
      "url": "https://www.pexels.com/photo/black-and-white-portrait-of-black-hair-woman-in-dress-sitting-9800867/",
      "photographer": "Vladimir Uporov",
      "photographer_url": "https://www.pexels.com/@uporovphoto",
      "photographer_id": 76947276,
      "avg_color": "#333333",
      "src": {
        "original": "https://images.pexels.com/photos/9800867/pexels-photo-9800867.jpeg",
        "large2x": "https://images.pexels.com/photos/9800867/pexels-photo-9800867.jpeg?auto=compress&cs=tinysrgb&dpr=2&h=650&w=940",
        "large": "https://images.pexels.com/photos/9800867/pexels-photo-9800867.jpeg?auto=compress&cs=tinysrgb&h=650&w=940",
        "medium": "https://images.pexels.com/photos/9800867/pexels-photo-9800867.jpeg?auto=compress&cs=tinysrgb&h=350",
        "small": "https://images.pexels.com/photos/9800867/pexels-photo-9800867.jpeg?auto=compress&cs=tinysrgb&h=130",
        "portrait": "https://images.pexels.com/photos/9800867/pexels-photo-9800867.jpeg?auto=compress&cs=tinysrgb&fit=crop&h=1200&w=800",
        "landscape": "https://images.pexels.com/photos/9800867/pexels-photo-9800867.jpeg?auto=compress&cs=tinysrgb&fit=crop&h=627&w=1200",
        "tiny": "https://images.pexels.com/photos/9800867/pexels-photo-9800867.jpeg?auto=compress&cs=tinysrgb&dpr=1&fit=crop&h=200&w=280"
      },
      "liked": false
    },
    {
      "id": 9811219,
      "width": 3840,
      "height": 5760,
      "url": "https://www.pexels.com/photo/black-and-white-portrait-of-standing-man-in-coat-9811219/",
      "photographer": "Daria Nekipelova",
      "photographer_url": "https://www.pexels.com/@daria-nekipelova-112078039",
      "photographer_id": 112078039,
      "avg_color": "#8C8C8C",
      "src": {
        "original": "https://images.pexels.com/photos/9811219/pexels-photo-9811219.jpeg",
        "large2x": "https://images.pexels.com/photos/9811219/pexels-photo-9811219.jpeg?auto=compress&cs=tinysrgb&dpr=2&h=650&w=940",
        "large": "https://images.pexels.com/photos/9811219/pexels-photo-9811219.jpeg?auto=compress&cs=tinysrgb&h=650&w=940",
        "medium": "https://images.pexels.com/photos/9811219/pexels-photo-9811219.jpeg?auto=compress&cs=tinysrgb&h=350",
        "small": "https://images.pexels.com/photos/9811219/pexels-photo-9811219.jpeg?auto=compress&cs=tinysrgb&h=130",
        "portrait": "https://images.pexels.com/photos/9811219/pexels-photo-9811219.jpeg?auto=compress&cs=tinysrgb&fit=crop&h=1200&w=800",
        "landscape": "https://images.pexels.com/photos/9811219/pexels-photo-9811219.jpeg?auto=compress&cs=tinysrgb&fit=crop&h=627&w=1200",
        "tiny": "https://images.pexels.com/photos/9811219/pexels-photo-9811219.jpeg?auto=compress&cs=tinysrgb&dpr=1&fit=crop&h=200&w=280"
      },
      "liked": false
    },
    {
      "id": 9812165,
      "width": 3456,
      "height": 4320,
      "url": "https://www.pexels.com/photo/waterfall-flowing-out-of-cave-in-rocks-9812165/",
      "photographer": "Yaroslav Chaadaev",
      "photographer_url": "https://www.pexels.com/@soulofmurcidus",
      "photographer_id": 82251264,
      "avg_color": "#2D3132",
      "src": {
        "original": "https://images.pexels.com/photos/9812165/pexels-photo-9812165.jpeg",
        "large2x": "https://images.pexels.com/photos/9812165/pexels-photo-9812165.jpeg?auto=compress&cs=tinysrgb&dpr=2&h=650&w=940",
        "large": "https://images.pexels.com/photos/9812165/pexels-photo-9812165.jpeg?auto=compress&cs=tinysrgb&h=650&w=940",
        "medium": "https://images.pexels.com/photos/9812165/pexels-photo-9812165.jpeg?auto=compress&cs=tinysrgb&h=350",
        "small": "https://images.pexels.com/photos/9812165/pexels-photo-9812165.jpeg?auto=compress&cs=tinysrgb&h=130",
        "portrait": "https://images.pexels.com/photos/9812165/pexels-photo-9812165.jpeg?auto=compress&cs=tinysrgb&fit=crop&h=1200&w=800",
        "landscape": "https://images.pexels.com/photos/9812165/pexels-photo-9812165.jpeg?auto=compress&cs=tinysrgb&fit=crop&h=627&w=1200",
        "tiny": "https://images.pexels.com/photos/9812165/pexels-photo-9812165.jpeg?auto=compress&cs=tinysrgb&dpr=1&fit=crop&h=200&w=280"
      },
      "liked": false
    },
    {
      "id": 9816125,
      "width": 3626,
      "height": 4834,
      "url": "https://www.pexels.com/photo/baby-roe-deer-standing-and-looking-9816125/",
      "photographer": "Amber Kipp",
      "photographer_url": "https://www.pexels.com/@amber-kipp-2542590",
      "photographer_id": 2542590,
      "avg_color": "#7A7066",
      "src": {
        "original": "https://images.pexels.com/photos/9816125/pexels-photo-9816125.jpeg",
        "large2x": "https://images.pexels.com/photos/9816125/pexels-photo-9816125.jpeg?auto=compress&cs=tinysrgb&dpr=2&h=650&w=940",
        "large": "https://images.pexels.com/photos/9816125/pexels-photo-9816125.jpeg?auto=compress&cs=tinysrgb&h=650&w=940",
        "medium": "https://images.pexels.com/photos/9816125/pexels-photo-9816125.jpeg?auto=compress&cs=tinysrgb&h=350",
        "small": "https://images.pexels.com/photos/9816125/pexels-photo-9816125.jpeg?auto=compress&cs=tinysrgb&h=130",
        "portrait": "https://images.pexels.com/photos/9816125/pexels-photo-9816125.jpeg?auto=compress&cs=tinysrgb&fit=crop&h=1200&w=800",
        "landscape": "https://images.pexels.com/photos/9816125/pexels-photo-9816125.jpeg?auto=compress&cs=tinysrgb&fit=crop&h=627&w=1200",
        "tiny": "https://images.pexels.com/photos/9816125/pexels-photo-9816125.jpeg?auto=compress&cs=tinysrgb&dpr=1&fit=crop&h=200&w=280"
      },
      "liked": false
    },
    {
      "id": 9807089,
      "width": 2470,
      "height": 3196,
      "url": "https://www.pexels.com/photo/woman-with-pink-hair-in-black-lingerie-9807089/",
      "photographer": "Lexa Nicole",
      "photographer_url": "https://www.pexels.com/@lexa-nicole-88109157",
      "photographer_id": 88109157,
      "avg_color": "#6C6658",
      "src": {
        "original": "https://images.pexels.com/photos/9807089/pexels-photo-9807089.jpeg",
        "large2x": "https://images.pexels.com/photos/9807089/pexels-photo-9807089.jpeg?auto=compress&cs=tinysrgb&dpr=2&h=650&w=940",
        "large": "https://images.pexels.com/photos/9807089/pexels-photo-9807089.jpeg?auto=compress&cs=tinysrgb&h=650&w=940",
        "medium": "https://images.pexels.com/photos/9807089/pexels-photo-9807089.jpeg?auto=compress&cs=tinysrgb&h=350",
        "small": "https://images.pexels.com/photos/9807089/pexels-photo-9807089.jpeg?auto=compress&cs=tinysrgb&h=130",
        "portrait": "https://images.pexels.com/photos/9807089/pexels-photo-9807089.jpeg?auto=compress&cs=tinysrgb&fit=crop&h=1200&w=800",
        "landscape": "https://images.pexels.com/photos/9807089/pexels-photo-9807089.jpeg?auto=compress&cs=tinysrgb&fit=crop&h=627&w=1200",
        "tiny": "https://images.pexels.com/photos/9807089/pexels-photo-9807089.jpeg?auto=compress&cs=tinysrgb&dpr=1&fit=crop&h=200&w=280"
      },
      "liked": false
    },
    {
      "id": 9817117,
      "width": 3797,
      "height": 4746,
      "url": "https://www.pexels.com/photo/close-up-view-of-woman-holding-lantern-9817117/",
      "photographer": "Max Garaev",
      "photographer_url": "https://www.pexels.com/@max-garaev-94108244",
      "photographer_id": 94108244,
      "avg_color": "#3E403D",
      "src": {
        "original": "https://images.pexels.com/photos/9817117/pexels-photo-9817117.jpeg",
        "large2x": "https://images.pexels.com/photos/9817117/pexels-photo-9817117.jpeg?auto=compress&cs=tinysrgb&dpr=2&h=650&w=940",
        "large": "https://images.pexels.com/photos/9817117/pexels-photo-9817117.jpeg?auto=compress&cs=tinysrgb&h=650&w=940",
        "medium": "https://images.pexels.com/photos/9817117/pexels-photo-9817117.jpeg?auto=compress&cs=tinysrgb&h=350",
        "small": "https://images.pexels.com/photos/9817117/pexels-photo-9817117.jpeg?auto=compress&cs=tinysrgb&h=130",
        "portrait": "https://images.pexels.com/photos/9817117/pexels-photo-9817117.jpeg?auto=compress&cs=tinysrgb&fit=crop&h=1200&w=800",
        "landscape": "https://images.pexels.com/photos/9817117/pexels-photo-9817117.jpeg?auto=compress&cs=tinysrgb&fit=crop&h=627&w=1200",
        "tiny": "https://images.pexels.com/photos/9817117/pexels-photo-9817117.jpeg?auto=compress&cs=tinysrgb&dpr=1&fit=crop&h=200&w=280"
      },
      "liked": false
    },
    {
      "id": 9803051,
      "width": 2160,
      "height": 3240,
      "url": "https://www.pexels.com/photo/brown-highland-cattle-standing-in-meadow-9803051/",
      "photographer": "Chris",
      "photographer_url": "https://www.pexels.com/@chriszwettler",
      "photographer_id": 67503635,
      "avg_color": "#4E5140",
      "src": {
        "original": "https://images.pexels.com/photos/9803051/pexels-photo-9803051.jpeg",
        "large2x": "https://images.pexels.com/photos/9803051/pexels-photo-9803051.jpeg?auto=compress&cs=tinysrgb&dpr=2&h=650&w=940",
        "large": "https://images.pexels.com/photos/9803051/pexels-photo-9803051.jpeg?auto=compress&cs=tinysrgb&h=650&w=940",
        "medium": "https://images.pexels.com/photos/9803051/pexels-photo-9803051.jpeg?auto=compress&cs=tinysrgb&h=350",
        "small": "https://images.pexels.com/photos/9803051/pexels-photo-9803051.jpeg?auto=compress&cs=tinysrgb&h=130",
        "portrait": "https://images.pexels.com/photos/9803051/pexels-photo-9803051.jpeg?auto=compress&cs=tinysrgb&fit=crop&h=1200&w=800",
        "landscape": "https://images.pexels.com/photos/9803051/pexels-photo-9803051.jpeg?auto=compress&cs=tinysrgb&fit=crop&h=627&w=1200",
        "tiny": "https://images.pexels.com/photos/9803051/pexels-photo-9803051.jpeg?auto=compress&cs=tinysrgb&dpr=1&fit=crop&h=200&w=280"
      },
      "liked": false
    },
    {
      "id": 9806936,
      "width": 3682,
      "height": 4602,
      "url": "https://www.pexels.com/photo/photo-of-fern-leaves-9806936/",
      "photographer": "Eriks Cistovs",
      "photographer_url": "https://www.pexels.com/@eriks-cistovs-73724074",
      "photographer_id": 73724074,
      "avg_color": "#141817",
      "src": {
        "original": "https://images.pexels.com/photos/9806936/pexels-photo-9806936.jpeg",
        "large2x": "https://images.pexels.com/photos/9806936/pexels-photo-9806936.jpeg?auto=compress&cs=tinysrgb&dpr=2&h=650&w=940",
        "large": "https://images.pexels.com/photos/9806936/pexels-photo-9806936.jpeg?auto=compress&cs=tinysrgb&h=650&w=940",
        "medium": "https://images.pexels.com/photos/9806936/pexels-photo-9806936.jpeg?auto=compress&cs=tinysrgb&h=350",
        "small": "https://images.pexels.com/photos/9806936/pexels-photo-9806936.jpeg?auto=compress&cs=tinysrgb&h=130",
        "portrait": "https://images.pexels.com/photos/9806936/pexels-photo-9806936.jpeg?auto=compress&cs=tinysrgb&fit=crop&h=1200&w=800",
        "landscape": "https://images.pexels.com/photos/9806936/pexels-photo-9806936.jpeg?auto=compress&cs=tinysrgb&fit=crop&h=627&w=1200",
        "tiny": "https://images.pexels.com/photos/9806936/pexels-photo-9806936.jpeg?auto=compress&cs=tinysrgb&dpr=1&fit=crop&h=200&w=280"
      },
      "liked": false
    }
  ],
  "total_results": 8000,
  "next_page": "https://api.pexels.com/v1/curated/?page=2&per_page=10"
}